%YAML 1.1
%TAG !u! tag:unity3d.com,2011:
--- !u!114 &11400000
MonoBehaviour:
  m_ObjectHideFlags: 0
  m_CorrespondingSourceObject: {fileID: 0}
  m_PrefabInstance: {fileID: 0}
  m_PrefabAsset: {fileID: 0}
  m_GameObject: {fileID: 0}
  m_Enabled: 1
  m_EditorHideFlags: 0
  m_Script: {fileID: 11500000, guid: 6e42beff55de4e96a280a30a2d7bd67f, type: 3}
  m_Name: 2. BlueBigBall
  m_EditorClassIdentifier: 
  CurrentUpgradeLevel: 0
  ballName: Blue
  ballColor: {r: 0, g: 0, b: 1, a: 1}
  startUnlockPrice: 500
  spawnerWage: 10
  smallBallPointMultiplier: 5
